Unit 1 Project: Geopolitical System Analysis
…
# new dataframe

hdiXdem_df <- avg_dem %>%
  left_join(avg_happiness, by = "country_name")

# now check again for unmatched countries
hdiXdem_df %>%
  filter(is.na(avg_well_being)) %>%
  distinct(country_name) %>%
  arrange(country_name)

# A tibble: 60 × 1
   country_name          
   <chr>                 
 1 Anguilla              
 2 Antigua and Barbuda   
 3 Aruba                 
 4 Bahamas               
 5 Barbados              
 6 Bermuda               
 7 British Virgin Islands
 8 Brunei                
 9 Cape Verde            
10 Cayman Islands        
# ℹ 50 more rows
…
